docs/assets/images/Signal-Examples/CVBS-RF.CSV

Channel			  :,CH1
Frequency			  :,F=3.021MHz
Period 			  :,T=320.0ns
PK-PK				  :,Vpp=2.020V
Average			  :,V=50.47mV
Vertical pos		  :,0.00mV
Probe attenuation	  :,1X
Voltage per ADC value:,20.00mV
Time interval		  :,0.02uS

index,CH1_Voltage(mV)
0,260.00
1,420.00
2,640.00
3,840.00
4,980.00
5,1100.00
6,1080.00
7,980.00
8,840.00
9,640.00
10,440.00
11,280.00
12,180.00
13,160.00
14,240.00
15,400.00
16,600.00
17,800.00
18,980.00
19,1060.00
20,1080.00
21,1000.00
22,860.00
23,660.00
24,440.00
25,280.00
26,180.00
27,160.00
28,240.00
29,380.00
30,600.00
31,780.00
32,980.00
33,1080.00
34,1080.00
35,1020.00
36,880.00
37,660.00
38,460.00
39,300.00
40,180.00
41,160.00
42,220.00
43,360.00
44,560.00
45,760.00
46,940.00
47,1060.00
48,1080.00
49,1020.00
50,900.00
51,700.00
52,500.00
53,320.00
54,180.00
55,160.00
56,220.00
57,360.00
58,560.00
59,740.00
60,940.00
61,1040.00
62,1080.00
63,1040.00
64,920.00
65,720.00
66,500.00
67,320.00
68,200.00
69,160.00
70,200.00
71,320.00
72,520.00
73,740.00
74,920.00
75,1040.00
76,1100.00
77,1060.00
78,920.00
79,740.00
80,520.00
81,320.00
82,200.00
83,160.00
84,200.00
85,320.00
86,520.00
87,700.00
88,900.00
89,1020.00
90,1080.00
91,1040.00
92,940.00
93,740.00
94,540.00
95,340.00
96,200.00
97,140.00
98,180.00
99,320.00
100,480.00
101,700.00
102,900.00
103,1020.00
104,1100.00
105,1060.00
106,960.00
107,780.00
108,560.00
109,360.00
110,220.00
111,160.00
112,180.00
113,300.00
114,460.00
115,660.00
116,880.00
117,1020.00
118,1080.00
119,1060.00
120,960.00
121,780.00
122,580.00
123,400.00
124,240.00
125,160.00
126,180.00
127,300.00
128,460.00
129,660.00
130,860.00
131,1000.00
132,1080.00
133,1080.00
134,980.00
135,820.00
136,600.00
137,400.00
138,240.00
139,160.00
140,160.00
141,260.00
142,420.00
143,640.00
144,840.00
145,980.00
146,1080.00
147,1080.00
148,980.00
149,840.00
150,640.00
151,420.00
152,260.00
153,160.00
154,160.00
155,260.00
156,400.00
157,620.00
158,820.00
159,980.00
160,1080.00
161,1080.00
162,980.00
163,860.00
164,660.00
165,440.00
166,280.00
167,180.00
168,160.00
169,240.00
170,380.00
171,600.00
172,800.00
173,980.00
174,1080.00
175,1100.00
176,1000.00
177,860.00
178,660.00
179,460.00
180,300.00
181,180.00
182,160.00
183,220.00
184,360.00
185,580.00
186,780.00
187,960.00
188,1060.00
189,1080.00
190,1000.00
191,880.00
192,680.00
193,480.00
194,320.00
195,200.00
196,160.00
197,220.00
198,340.00
199,560.00
200,740.00
201,940.00
202,1040.00
203,1100.00
204,1040.00
205,900.00
206,700.00
207,500.00
208,320.00
209,200.00
210,160.00
211,200.00
212,320.00
213,520.00
214,740.00
215,940.00
216,1040.00
217,1100.00
218,1040.00
219,920.00
220,740.00
221,540.00
222,320.00
223,200.00
224,160.00
225,200.00
226,320.00
227,500.00
228,700.00
229,900.00
230,1020.00
231,1080.00
232,1040.00
233,940.00
234,740.00
235,540.00
236,340.00
237,220.00
238,160.00
239,200.00
240,320.00
241,500.00
242,700.00
243,900.00
244,1040.00
245,1100.00
246,1060.00
247,960.00
248,760.00
249,560.00
250,360.00
251,220.00
252,160.00
253,180.00
254,300.00
255,460.00
256,660.00
257,860.00
258,1000.00
259,1080.00
260,1060.00
261,980.00
262,780.00
263,580.00
264,380.00
265,240.00
266,160.00
267,180.00
268,280.00
269,440.00
270,660.00
271,860.00
272,1000.00
273,1080.00
274,1060.00
275,980.00
276,800.00
277,600.00
278,400.00
279,260.00
280,160.00
281,180.00
282,260.00
283,420.00
284,640.00
285,840.00
286,1000.00
287,1080.00
288,1080.00
289,980.00
290,820.00
291,620.00
292,420.00
293,260.00
294,160.00
295,160.00
296,260.00
297,420.00
298,620.00
299,820.00
300,980.00
301,1080.00
302,1080.00
303,980.00
304,840.00
305,640.00
306,420.00
307,280.00
308,180.00
309,160.00
310,240.00
311,380.00
312,600.00
313,800.00
314,980.00
315,1080.00
316,1080.00
317,1000.00
318,860.00
319,660.00
320,440.00
321,280.00
322,180.00
323,160.00
324,240.00
325,380.00
326,580.00
327,800.00
328,980.00
329,1080.00
330,1100.00
331,1020.00
332,880.00
333,700.00
334,560.00
335,440.00
336,380.00
337,340.00
338,320.00
339,280.00
340,240.00
341,200.00
342,180.00
343,240.00
344,340.00
345,520.00
346,720.00
347,920.00
348,1040.00
349,1040.00
350,960.00
351,720.00
352,440.00
353,160.00
354,-80.00
355,-220.00
356,-220.00
357,-100.00
358,140.00
359,420.00
360,720.00
361,960.00
362,1080.00
363,1080.00
364,960.00
365,720.00
366,440.00
367,160.00
368,-60.00
369,-200.00
370,-220.00
371,-100.00
372,120.00
373,400.00
374,680.00
375,940.00
376,1060.00
377,1080.00
378,980.00
379,760.00
380,480.00
381,180.00
382,-40.00
383,-200.00
384,-220.00
385,-100.00
386,100.00
387,380.00
388,660.00
389,920.00
390,1060.00
391,1080.00
392,980.00
393,760.00
394,500.00
395,220.00
396,-20.00
397,-200.00
398,-240.00
399,-140.00
400,60.00
401,340.00
402,640.00
403,900.00
404,1060.00
405,1100.00
406,1000.00
407,800.00
408,540.00
409,240.00
410,0.00
411,-180.00
412,-220.00
413,-140.00
414,40.00
415,320.00
416,620.00
417,880.00
418,1040.00
419,1100.00
420,1000.00
421,820.00
422,560.00
423,260.00
424,0.00
425,-180.00
426,-220.00
427,-140.00
428,40.00
429,320.00
430,600.00
431,860.00
432,1020.00
433,1100.00
434,1020.00
435,840.00
436,580.00
437,300.00
438,20.00
439,-160.00
440,-220.00
441,-160.00
442,0.00
443,280.00
444,560.00
445,840.00
446,1020.00
447,1100.00
448,1040.00
449,860.00
450,620.00
451,320.00
452,40.00
453,-140.00
454,-220.00
455,-180.00
456,0.00
457,260.00
458,540.00
459,820.00
460,1000.00
461,1100.00
462,1040.00
463,880.00
464,640.00
465,320.00
466,60.00
467,-120.00
468,-220.00
469,-180.00
470,-40.00
471,220.00
472,500.00
473,780.00
474,980.00
475,1100.00
476,1060.00
477,920.00
478,660.00
479,360.00
480,100.00
481,-100.00
482,-220.00
483,-200.00
484,-40.00
485,180.00
486,480.00
487,760.00
488,980.00
489,1080.00
490,1060.00
491,940.00
492,680.00
493,380.00
494,120.00
495,-80.00
496,-220.00
497,-200.00
498,-60.00
499,180.00
500,440.00
501,740.00
502,980.00
503,1080.00
504,1080.00
505,960.00
506,720.00
507,420.00
508,140.00
509,-80.00
510,-220.00
511,-220.00
512,-80.00
513,140.00
514,420.00
515,700.00
516,960.00
517,1080.00
518,1080.00
519,960.00
520,720.00
521,440.00
522,160.00
523,-60.00
524,-200.00
525,-220.00
526,-100.00
527,120.00
528,400.00
529,680.00
530,920.00
531,1060.00
532,1080.00
533,980.00
534,760.00
535,480.00
536,200.00
537,-40.00
538,-200.00
539,-240.00
540,-120.00
541,100.00
542,380.00
543,660.00
544,900.00
545,1060.00
546,1100.00
547,980.00
548,800.00
549,520.00
550,240.00
551,-20.00
552,-180.00
553,-240.00
554,-140.00
555,60.00
556,320.00
557,640.00
558,880.00
559,1040.00
560,1080.00
561,1000.00
562,800.00
563,540.00
564,260.00
565,0.00
566,-180.00
567,-240.00
568,-160.00
569,40.00
570,320.00
571,600.00
572,860.00
573,1040.00
574,1100.00
575,1020.00
576,840.00
577,580.00
578,280.00
579,0.00
580,-160.00
581,-220.00
582,-160.00
583,0.00
584,280.00
585,580.00
586,840.00
587,1020.00
588,1100.00
589,1040.00
590,860.00
591,600.00
592,300.00
593,20.00
594,-140.00
595,-220.00
596,-160.00
597,0.00
598,260.00
599,560.00
600,1080.00
601,1040.00
602,880.00
603,640.00
604,320.00
605,60.00
606,-140.00
607,-220.00
608,-200.00
609,-20.00
610,220.00
611,520.00
612,780.00
613,1000.00
614,1100.00
615,1060.00
616,920.00
617,660.00
618,360.00
619,80.00
620,-120.00
621,-220.00
622,-200.00
623,-40.00
624,200.00
625,500.00
626,760.00
627,980.00
628,1080.00
629,1060.00
630,920.00
631,660.00
632,380.00
633,100.00
634,-100.00
635,-220.00
636,-200.00
637,-40.00
638,180.00
639,460.00
640,740.00
641,980.00
642,1080.00
643,1080.00
644,960.00
645,700.00
646,420.00
647,140.00
648,-80.00
649,-220.00
650,-220.00
651,-80.00
652,140.00
653,420.00
654,720.00
655,960.00
656,1080.00
657,1080.00
658,960.00
659,720.00
660,440.00
661,160.00
662,-60.00
663,-200.00
664,-220.00
665,-80.00
666,120.00
667,400.00
668,680.00
669,940.00
670,1060.00
671,1080.00
672,980.00
673,760.00
674,460.00
675,180.00
676,-40.00
677,-200.00
678,-220.00
679,-120.00
680,80.00
681,360.00
682,660.00
683,900.00
684,1060.00
685,1100.00
686,980.00
687,780.00
688,500.00
689,220.00
690,-20.00
691,-180.00
692,-220.00
693,-120.00
694,60.00
695,320.00
696,640.00
697,880.00
698,1040.00
699,1080.00
700,1000.00
701,800.00
702,520.00
703,240.00
704,-20.00
705,-200.00
706,-240.00
707,-140.00
708,40.00
709,320.00
710,620.00
711,880.00
712,1040.00
713,1100.00
714,1020.00
715,820.00
716,560.00
717,280.00
718,0.00
719,-160.00
720,-240.00
721,-160.00
722,20.00
723,280.00
724,580.00
725,840.00
726,1020.00
727,1100.00
728,1020.00
729,860.00
730,600.00
731,300.00
732,20.00
733,-160.00
734,-240.00
735,-180.00
736,0.00
737,260.00
738,560.00
739,820.00
740,1000.00
741,1080.00
742,1040.00
743,880.00
744,640.00
745,320.00
746,60.00
747,-140.00
748,-220.00
749,-140.00
750,40.00
751,320.00
752,640.00
753,860.00
754,980.00
755,940.00
756,760.00
757,480.00
758,180.00
759,-80.00
760,-260.00
761,-300.00
762,-200.00
763,0.00
764,280.00
765,560.00
766,780.00
767,920.00
768,940.00
769,820.00
770,620.00
771,340.00
772,60.00
773,-140.00
774,-280.00
775,-300.00
776,-200.00
777,0.00
778,260.00
779,540.00
780,740.00
781,900.00
782,920.00
783,840.00
784,640.00
785,380.00
786,100.00
787,-120.00
788,-260.00
789,-320.00
790,-220.00
791,-20.00
792,220.00
793,500.00
794,740.00
795,900.00
796,940.00
797,860.00
798,660.00
799,400.00
800,120.00
801,-100.00
802,-260.00
803,-300.00
804,-220.00
805,-40.00
806,200.00
807,480.00
808,720.00
809,880.00
810,940.00
811,860.00
812,660.00
813,420.00
814,160.00
815,-80.00
816,-240.00
817,-300.00
818,-240.00
819,-60.00
820,180.00
821,440.00
822,680.00
823,860.00
824,920.00
825,860.00
826,700.00
827,460.00
828,200.00
829,-40.00
830,-220.00
831,-300.00
832,-240.00
833,-80.00
834,140.00
835,400.00
836,660.00
837,860.00
838,940.00
839,880.00
840,720.00
841,480.00
842,220.00
843,-20.00
844,-240.00
845,-320.00
846,-280.00
847,-100.00
848,120.00
849,380.00
850,660.00
851,840.00
852,940.00
853,900.00
854,740.00
855,520.00
856,240.00
857,-20.00
858,-220.00
859,-300.00
860,-280.00
861,-140.00
862,100.00
863,360.00
864,640.00
865,820.00
866,920.00
867,900.00
868,760.00
869,540.00
870,280.00
871,0.00
872,-180.00
873,-300.00
874,-280.00
875,-140.00
876,80.00
877,340.00
878,620.00
879,820.00
880,920.00
881,920.00
882,760.00
883,560.00
884,300.00
885,20.00
886,-180.00
887,-300.00
888,-300.00
889,-160.00
890,40.00
891,320.00
892,580.00
893,780.00
894,920.00
895,920.00
896,800.00
897,600.00
898,320.00
899,40.00
900,-160.00
901,-280.00
902,-300.00
903,-180.00
904,0.00
905,300.00
906,540.00
907,780.00
908,920.00
909,920.00
910,820.00
911,620.00
912,340.00
913,80.00
914,-140.00
915,-280.00
916,-300.00
917,-200.00
918,0.00
919,260.00
920,520.00
921,760.00
922,900.00
923,940.00
924,840.00
925,640.00
926,360.00
927,100.00
928,-120.00
929,-260.00
930,-300.00
931,-220.00
932,-20.00
933,240.00
934,500.00
935,720.00
936,900.00
937,940.00
938,840.00
939,660.00
940,400.00
941,120.00
942,-100.00
943,-260.00
944,-320.00
945,-240.00
946,-40.00
947,220.00
948,480.00
949,720.00
950,880.00
951,940.00
952,860.00
953,660.00
954,420.00
955,140.00
956,-80.00
957,-260.00
958,-320.00
959,-240.00
960,-60.00
961,180.00
962,460.00
963,700.00
964,880.00
965,940.00
966,860.00
967,680.00
968,440.00
969,180.00
970,-60.00
971,-240.00
972,-300.00
973,-240.00
974,-80.00
975,160.00
976,420.00
977,660.00
978,860.00
979,940.00
980,880.00
981,700.00
982,460.00
983,200.00
984,-40.00
985,-220.00
986,-300.00
987,-260.00
988,-100.00
989,120.00
990,380.00
991,660.00
992,840.00
993,940.00
994,900.00
995,740.00
996,520.00
997,240.00
998,-20.00
999,-220.00
1000,-320.00
1001,-280.00
1002,-120.00
1003,100.00
1004,360.00
1005,640.00
1006,820.00
1007,920.00
1008,900.00
1009,740.00
1010,520.00
1011,260.00
1012,0.00
1013,-200.00
1014,-300.00
1015,-280.00
1016,-140.00
1017,80.00
1018,340.00
1019,620.00
1020,820.00
1021,920.00
1022,920.00
1023,780.00
1024,560.00
1025,300.00
1026,0.00
1027,-180.00
1028,-300.00
1029,-300.00
1030,-160.00
1031,40.00
1032,320.00
1033,600.00
1034,800.00
1035,920.00
1036,920.00
1037,800.00
1038,580.00
1039,320.00
1040,40.00
1041,-160.00
1042,-280.00
1043,-280.00
1044,-180.00
1045,40.00
1046,300.00
1047,560.00
1048,780.00
1049,900.00
1050,920.00
1051,800.00
1052,600.00
1053,320.00
1054,60.00
1055,-160.00
1056,-300.00
1057,-300.00
1058,-200.00
1059,0.00
1060,260.00
1061,540.00
1062,760.00
1063,900.00
1064,920.00
1065,840.00
1066,640.00
1067,360.00
1068,100.00
1069,-120.00
1070,-280.00
1071,-300.00
1072,-220.00
1073,-20.00
1074,240.00
1075,500.00
1076,720.00
1077,900.00
1078,940.00
1079,840.00
1080,660.00
1081,380.00
1082,120.00
1083,-120.00
1084,-280.00
1085,-320.00
1086,-220.00
1087,-20.00
1088,220.00
1089,480.00
1090,720.00
1091,880.00
1092,940.00
1093,860.00
1094,660.00
1095,420.00
1096,140.00
1097,-80.00
1098,-260.00
1099,-300.00
1100,-240.00
1101,-60.00
1102,180.00
1103,440.00
1104,680.00
1105,860.00
1106,920.00
1107,880.00
1108,700.00
1109,460.00
1110,200.00
1111,-60.00
1112,-240.00
1113,-300.00
1114,-240.00
1115,-80.00
1116,140.00
1117,420.00
1118,660.00
1119,860.00
1120,920.00
1121,880.00
1122,720.00
1123,480.00
1124,200.00
1125,-40.00
1126,-240.00
1127,-320.00
1128,-280.00
1129,-100.00
1130,120.00
1131,380.00
1132,660.00
1133,860.00
1134,940.00
1135,900.00
1136,740.00
1137,500.00
1138,240.00
1139,-20.00
1140,-220.00
1141,-300.00
1142,-280.00
1143,-120.00
1144,100.00
1145,380.00
1146,640.00
1147,820.00
1148,920.00
1149,900.00
1150,740.00
1151,520.00
1152,260.00
1153,0.00
1154,-220.00
1155,-320.00
1156,-320.00
1157,-180.00
1158,60.00
1159,340.00
1160,620.00
1161,820.00
1162,940.00
1163,900.00
1164,720.00
1165,520.00
1166,320.00
1167,180.00
1168,120.00
1169,160.00
1170,240.00
1171,300.00
1172,300.00
1173,200.00
1174,40.00
1175,-140.00
1176,-300.00
1177,-340.00
1178,-300.00
1179,-120.00
1180,140.00
1181,400.00
1182,640.00
1183,780.00
1184,800.00
1185,660.00
1186,440.00
1187,140.00
1188,-120.00
1189,-340.00
1190,-460.00
1191,-480.00
1192,-340.00
1193,-140.00
1194,100.00
1195,380.00
1196,620.00
1197,740.00
1198,740.00
1199,640.00
1200,-100.00
1201,-320.00
1202,-440.00
1203,-460.00
1204,-360.00
1205,-160.00
1206,100.00
1207,360.00
1208,600.00
1209,720.00
1210,740.00
1211,660.00
1212,440.00
1213,200.00
1214,-80.00
1215,-320.00
1216,-440.00
1217,-480.00
1218,-380.00
1219,-180.00
1220,60.00
1221,340.00
1222,580.00
1223,720.00
1224,760.00
1225,680.00
1226,480.00
1227,220.00
1228,-40.00
1229,-280.00
1230,-420.00
1231,-460.00
1232,-380.00
1233,-220.00
1234,40.00
1235,320.00
1236,560.00
1237,700.00
1238,760.00
1239,660.00
1240,500.00
1241,260.00
1242,-20.00
1243,-280.00
1244,-440.00
1245,-480.00
1246,-400.00
1247,-220.00
1248,20.00
1249,300.00
1250,540.00
1251,700.00
1252,760.00
1253,700.00
1254,520.00
1255,280.00
1256,0.00
1257,-240.00
1258,-400.00
1259,-480.00
1260,-420.00
1261,-260.00
1262,0.00
1263,280.00
1264,520.00
1265,680.00
1266,760.00
1267,700.00
1268,540.00
1269,300.00
1270,20.00
1271,-220.00
1272,-400.00
1273,-480.00
1274,-420.00
1275,-280.00
1276,-20.00
1277,240.00
1278,500.00
1279,680.00
1280,760.00
1281,700.00
1282,560.00
1283,320.00
1284,40.00
1285,-200.00
1286,-380.00
1287,-480.00
1288,-440.00
1289,-300.00
1290,-60.00
1291,200.00
1292,460.00
1293,660.00
1294,760.00
1295,740.00
1296,600.00
1297,340.00
1298,80.00
1299,-180.00
1300,-360.00
1301,-460.00
1302,-440.00
1303,-320.00
1304,-80.00
1305,180.00
1306,440.00
1307,660.00
1308,740.00
1309,720.00
1310,600.00
1311,380.00
1312,100.00
1313,-140.00
1314,-340.00
1315,-460.00
1316,-460.00
1317,-340.00
1318,-100.00
1319,160.00
1320,420.00
1321,660.00
1322,760.00
1323,740.00
1324,640.00
1325,400.00
1326,140.00
1327,-140.00
1328,-340.00
1329,-460.00
1330,-460.00
1331,-340.00
1332,-140.00
1333,120.00
1334,380.00
1335,620.00
1336,740.00
1337,740.00
1338,640.00
1339,420.00
1340,160.00
1341,-100.00
1342,-320.00
1343,-460.00
1344,-460.00
1345,-340.00
1346,-160.00
1347,100.00
1348,380.00
1349,620.00
1350,740.00
1351,740.00
1352,660.00
1353,440.00
1354,180.00
1355,-80.00
1356,-320.00
1357,-440.00
1358,-480.00
1359,-380.00
1360,-180.00
1361,80.00
1362,340.00
1363,580.00
1364,720.00
1365,760.00
1366,660.00
1367,460.00
1368,200.00
1369,-60.00
1370,-300.00
1371,-440.00
1372,-480.00
1373,-380.00
1374,-200.00
1375,60.00
1376,320.00
1377,580.00
1378,720.00
1379,760.00
1380,660.00
1381,480.00
1382,240.00
1383,-20.00
1384,-260.00
1385,-420.00
1386,-480.00
1387,-400.00
1388,-240.00
1389,20.00
1390,300.00
1391,560.00
1392,700.00
1393,760.00
1394,700.00
1395,520.00
1396,280.00
1397,0.00
1398,-260.00
1399,-420.00
1400,-480.00
1401,-420.00
1402,-260.00
1403,0.00
1404,280.00
1405,520.00
1406,680.00
1407,760.00
1408,700.00
1409,540.00
1410,300.00
1411,20.00
1412,-240.00
1413,-400.00
1414,-480.00
1415,-420.00
1416,-280.00
1417,-20.00
1418,260.00
1419,500.00
1420,680.00
1421,760.00
1422,700.00
1423,560.00
1424,320.00
1425,40.00
1426,-200.00
1427,-380.00
1428,-480.00
1429,-440.00
1430,-300.00
1431,-40.00
1432,220.00
1433,480.00
1434,660.00
1435,760.00
1436,720.00
1437,580.00
1438,320.00
1439,60.00
1440,-180.00
1441,-360.00
1442,-460.00
1443,-440.00
1444,-320.00
1445,-80.00
1446,200.00
1447,440.00
1448,660.00
1449,740.00
1450,720.00
1451,600.00
1452,360.00
1453,80.00
1454,-180.00
1455,-360.00
1456,-480.00
1457,-440.00
1458,-340.00
1459,-100.00
1460,180.00
1461,440.00
1462,660.00
1463,760.00
1464,740.00
1465,620.00
1466,380.00
1467,120.00
1468,-140.00
1469,-340.00
1470,-460.00
1471,-460.00
1472,-340.00
1473,-120.00
1474,140.00
1475,400.00
1476,620.00
1477,740.00
1478,740.00
1479,620.00
1480,400.00
1481,140.00
1482,-120.00
1483,-340.00
1484,-460.00
1485,-460.00
1486,-340.00
1487,-140.00
1488,120.00
1489,380.00
1490,620.00
1491,740.00
1492,740.00
1493,660.00
1494,440.00
1495,180.00
1496,-100.00
1497,-340.00
1498,-460.00
1499,-480.00
1500,-360.00
1501,-180.00
1502,80.00
1503,360.00
1504,600.00
1505,720.00
1506,760.00
1507,660.00
1508,460.00
1509,200.00
1510,-60.00
1511,-300.00
1512,-440.00
1513,-480.00
1514,-380.00
1515,-200.00
1516,60.00
1517,340.00
1518,580.00
1519,720.00
1520,740.00
1521,660.00
1522,480.00
1523,220.00
1524,-40.00
1525,-280.00
1526,-440.00
1527,-480.00
1528,-400.00
1529,-220.00
1530,20.00
1531,320.00
1532,560.00
1533,720.00
1534,760.00
1535,700.00
1536,520.00
1537,260.00
1538,-20.00
1539,-280.00
1540,-440.00
1541,-480.00
1542,-420.00
1543,-240.00
1544,0.00
1545,300.00
1546,540.00
1547,700.00
1548,740.00
1549,680.00
1550,520.00
1551,280.00
1552,0.00
1553,-240.00
1554,-400.00
1555,-480.00
1556,-420.00
1557,-260.00
1558,0.00
1559,280.00
1560,520.00
1561,700.00
1562,760.00
1563,700.00
1564,540.00
1565,300.00
1566,20.00
1567,-220.00
1568,-400.00
1569,-480.00
1570,-420.00
1571,-280.00
1572,-20.00
1573,240.00
1574,480.00
1575,660.00
1576,760.00
1577,720.00
1578,580.00
1579,340.00
1580,100.00
1581,-120.00
1582,-320.00
1583,-420.00
1584,-460.00
1585,-420.00
1586,-320.00
1587,-140.00
1588,80.00
1589,300.00
1590,500.00
1591,640.00
1592,660.00
1593,600.00
1594,400.00
1595,140.00
1596,-120.00
1597,-380.00
1598,-560.00
1599,-640.00
1600,-580.00
1601,-400.00
1602,-160.00
1603,140.00
1604,400.00
1605,620.00
1606,680.00
1607,640.00
1608,460.00
1609,200.00
1610,-100.00
1611,-360.00
1612,-560.00
1613,-640.00
1614,-600.00
1615,-420.00
1616,-180.00
1617,120.00
1618,380.00
1619,600.00
1620,660.00
1621,640.00
1622,460.00
1623,200.00
1624,-80.00
1625,-340.00
1626,-540.00
1627,-640.00
1628,-600.00
1629,-440.00
1630,-200.00
1631,100.00
1632,360.00
1633,580.00
1634,660.00
1635,660.00
1636,480.00
1637,240.00
1638,-40.00
1639,-340.00
1640,-540.00
1641,-640.00
1642,-620.00
1643,-460.00
1644,-220.00
1645,60.00
1646,340.00
1647,560.00
1648,660.00
1649,660.00
1650,500.00
1651,280.00
1652,0.00
1653,-300.00
1654,-520.00
1655,-640.00
1656,-620.00
1657,-480.00
1658,-260.00
1659,40.00
1660,320.00
1661,560.00
1662,660.00
1663,660.00
1664,520.00
1665,300.00
1666,0.00
1667,-300.00
1668,-520.00
1669,-640.00
1670,-640.00
1671,-500.00
1672,-280.00
1673,20.00
1674,320.00
1675,540.00
1676,660.00
1677,660.00
1678,560.00
1679,320.00
1680,20.00
1681,-260.00
1682,-480.00
1683,-620.00
1684,-640.00
1685,-520.00
1686,-320.00
1687,-20.00
1688,280.00
1689,500.00
1690,660.00
1691,660.00
1692,560.00
1693,340.00
1694,60.00
1695,-220.00
1696,-460.00
1697,-620.00
1698,-640.00
1699,-540.00
1700,-340.00
1701,-40.00
